[
  {
    "id": "rjsl",
    "username": "michel",
    "email": "michel.drucker@gmail.com",
    "color": "#FF0000",
    "public-key": "DSQHLFfdsofjsdLFHDSILFHDSLFhisd"
  },
  {
    "id": "rjsl",
    "username": "patrice",
    "email": "patrice.drucker@gmail.com",
    "color": "#00FFFF",
    "public-key": "hsdjbfhdlsfdSFDSFSDFDs"
  },
  {
    "id": "rjsl",
    "username": "franck",
    "email": "franck.drucker@gmail.com",
    "color": "#FF00FF",
    "public-key": "azertyu"
  }
]